…
#raw_sent %>% 
#  select(ends_with('dude'), ends_with('_bro'), `RESP-ID`) %>% 
#  mutate(AT = c('dude')) %>% 
#  relocate(AT, `RESP-ID`, .before = music_dude) %>% 
#  rename(remove(ends_with('_dude')))
  
# data wrangling

raw_sent_cln %>% 
  select(-`RESP-ID`, -GENDER) %>% 
  select(ends_with("_dude"))
```

    # A tibble: 177 × 6
       music_dude meeting_dude shut_dude goodtosee_dude signal_dude email_dude
            <dbl>        <dbl>     <dbl>          <dbl>       <dbl>      <dbl>
     1          1            2         2              1           1          1
     2          2            3         1              2           1          1
     3          4            3         4              1           4          4
     4          1            1         1              2           1          1
     5          3            3         4              2           4          3
     6          1            1         2              1           2          2
     7          2            3         2              3           1          3
     8          1            1         1              1           1          1
     9          1            2         2              2           1          2
    10          1            1         2              1           2          2
    # … with 167 more rows
…
## Compare dude/bro/bruh based on interlocutors’ gender

``` r
raw
```

    # A tibble: 22,344 × 8
       `ADDR-GENDER` `ADDR-RANK` TERM  FREQUENCY `RESP-GENDER` AGE   RESP-…¹ AT-US…²
       <chr>         <chr>       <chr>     <dbl> <chr>         <chr> <chr>   <chr>  
     1 Feminine      Parent      BRO           2 Feminine      18-25 R_3PzQ… bro    
     2 Feminine      Parent      BRO           0 Masculine     18-25 R_33ki… bro    
     3 Feminine      Parent      BRO           4 Feminine      18-25 R_XjNC… bro,br…
     4 Feminine      Parent      BRO           2 Feminine      18-25 R_3Mfm… bro,br…
     5 Feminine      Parent      BRO           1 Feminine      18-25 R_1rpO… bro,br…
     6 Feminine      Parent      BRO           1 Masculine     18-25 R_2799… bro,br…
     7 Feminine      Parent      BRO           2 Feminine      18-25 R_1gFn… bro,br…
     8 Feminine      Parent      BRO           0 Masculine     18-25 R_1LGo… bro,br…
     9 Feminine      Parent      BRO           0 Feminine      18-25 R_3EHg… bro,br…
    10 Feminine      Parent      BRO          NA Feminine      18-25 R_1pRk… bro,br…
    # … with 22,334 more rows, and abbreviated variable names ¹​`RESP-ID`,
    #   ²​`AT-USE-GENERAL`
…
``` r
raw %>% 
  select(`RESP-ID`, `AT-USE-GENERAL`) %>% 
  map(~ str_split(., ",")) %>% 
  as_data_frame() %>% 
  unnest(`RESP-ID`) %>% 
  filter(`AT-USE-GENERAL` %in% c("dude", "bro")) %>% 
  left_join(., sexual, by = "RESP-ID") %>% 
  arrange(`RESP-ID`)
```

    # A tibble: 1,372 × 3
       `RESP-ID`         `AT-USE-GENERAL` SEXRECODE
       <chr>             <list>           <chr>    
     1 R_1CD3LNgloXCZ42w <chr [1]>        Lesbian  
     2 R_1CD3LNgloXCZ42w <chr [1]>        Lesbian  
     3 R_1CD3LNgloXCZ42w <chr [1]>        Lesbian  
     4 R_1CD3LNgloXCZ42w <chr [1]>        Lesbian  
     5 R_1CD3LNgloXCZ42w <chr [1]>        Lesbian  
     6 R_1CD3LNgloXCZ42w <chr [1]>        Lesbian  
     7 R_1CD3LNgloXCZ42w <chr [1]>        Lesbian  
     8 R_1CD3LNgloXCZ42w <chr [1]>        Lesbian  
     9 R_1CD3LNgloXCZ42w <chr [1]>        Lesbian  
    10 R_1CD3LNgloXCZ42w <chr [1]>        Lesbian  
    # … with 1,362 more rows
…
# Sexuality dude/bro

``` r
sexual
```

    # A tibble: 228 × 2
       SEXRECODE `RESP-ID`        
       <chr>     <chr>            
     1 Het       R_33kiGGca4LUT1CY
     2 Het       R_3PzQdcTJzYbZXKv
     3 Other     R_1LGoOEmO4vEWEFM
     4 <NA>      R_10pBzbfQuNcvT4m
     5 Pan       R_XjNCWoHHPn6Vgu5
     6 Het       R_1gFnojyf6wsLeNv
     7 Het       R_1rpOK7Kq0W3PGPI
     8 Het       R_27990m3pU4KhkgU
     9 Het       R_3MfmOPcGaPLV1zP
    10 Pan       R_1pRksLPihqfNrsj
    # … with 218 more rows
…
  
raw %>% 
  select(`RESP-ID`, `AT-USE-GENERAL`) %>%
  mutate(dude = grepl("dude", `AT-USE-GENERAL`),
          bro = grepl("bro",  `AT-USE-GENERAL`)) %>% 
  left_join(., sexual, by = "RESP-ID") %>% 
  na.omit(SEXRECODE) %>% 
  map(~ str_replace_all(., "(Asexual|Bi|Gay|Lesbian|Pan|Queer|Other)", "non_Het")) %>% 
  as_data_frame()
```

    # A tibble: 18,816 × 5
       `RESP-ID`         `AT-USE-GENERAL`   dude  bro   SEXRECODE
       <chr>             <chr>              <chr> <chr> <chr>    
     1 R_3PzQdcTJzYbZXKv bro                FALSE TRUE  Het      
     2 R_33kiGGca4LUT1CY bro                FALSE TRUE  Het      
     3 R_XjNCWoHHPn6Vgu5 bro,bruh,dude      TRUE  TRUE  non_Het  
     4 R_3MfmOPcGaPLV1zP bro,bruh,dude      TRUE  TRUE  Het      
     5 R_1rpOK7Kq0W3PGPI bro,bruh,dude      TRUE  TRUE  Het      
     6 R_27990m3pU4KhkgU bro,bruh,dude      TRUE  TRUE  Het      
     7 R_1gFnojyf6wsLeNv bro,bruh,dude      TRUE  TRUE  Het      
     8 R_1LGoOEmO4vEWEFM bro,bruh,dude      TRUE  TRUE  non_Het  
     9 R_3EHgfeUNlq26yts bro,bruh,dude,girl TRUE  TRUE  non_Het  
    10 R_1pRksLPihqfNrsj bro,bruh,dude,girl TRUE  TRUE  non_Het  
    # … with 18,806 more rows
…
snowball <- stopwords(language = "en", source = "snowball", simplify = TRUE)
nltk <- stopwords(language = "en", source = "nltk", simplify = TRUE)
smart <- stopwords(language = "en", source = "smart", simplify = TRUE)

# removing stop words

sent_clean %>% 
  select(GENDER, Sent) %>% 
  unnest_tokens(word, Sent) %>% 
  filter(!(word %in% snowball | word %in% nltk | word %in% smart)) %>% 
  filter(!(word %in% c("you're", "bruh", "bro", "that's")))
```

    # A tibble: 777 × 2
       GENDER    word     
       <chr>     <chr>    
     1 Masculine you’re   
     2 Masculine upset    
     3 Masculine yellow   
     4 Masculine fellow   
     5 Masculine told     
     6 Masculine word     
     7 Masculine word     
     8 Masculine that’s   
     9 Feminine  referring
    10 Feminine  person   
    # … with 767 more rows

``` r
sent_clean %>% 
  select(GENDER, Sent) %>% 
  unnest_tokens(token = "sentences", Sent, Sent) %>% 
  mutate(bruh = grepl("bruh", Sent),
          bro = grepl("bro",  Sent))
```

    # A tibble: 233 × 4
       GENDER    Sent                                                    bruh  bro  
       <chr>     <chr>                                                   <lgl> <lgl>
     1 Masculine bruh is when you’re upset                               TRUE  FALSE
     2 Masculine my yellow fellow told me that “bruh” is like being a…   TRUE  FALSE
     3 Feminine  bro is used when referring to a person while bruh is m… TRUE  TRUE 
     4 Feminine  bro is more manly to me.                                FALSE TRUE 
     5 Feminine  bruh is a term that girls tend to use more i think.     TRUE  FALSE
     6 Masculine bro is like dude, bruh is like “seriously dude?”        TRUE  TRUE 
     7 Feminine  bruh is usually used for irritation, bro is more frien… TRUE  TRUE 
     8 Feminine  bruh is like disappointment like “damn.”                TRUE  FALSE
     9 Feminine  bro is endearing.                                       FALSE TRUE 
    10 Feminine  bro is like brother.                                    FALSE TRUE 
    # … with 223 more rows
…
    Warning: unnest() has a new interface. See ?unnest for details.
    Try `df %>% unnest(c(GENDER, Sent))`, with `mutate()` if needed

    # A tibble: 56 × 4
       GENDER                Sent                                        bruh  bro  
       <chr>                 <chr>                                       <lgl> <lgl>
     1 Feminine              "bro is used when referring to a person wh… TRUE  TRUE 
     2 Non-binary            "bruh is said with more exasperation (\"br… TRUE  TRUE 
     3 Other (please state): "bruh is more common for me i think becaus… TRUE  TRUE 
     4 Feminine              "bro is used in a more friendly tone where… TRUE  TRUE 
     5 Other (please state): "like you can use brother in a church but … TRUE  TRUE 
     6 Other (please state): "if something bad happens you can just say… TRUE  TRUE 
     7 Feminine              "bruh is somehow more casual than bro."     TRUE  TRUE 
     8 Masculine             " while bro is much more likely to be part… TRUE  TRUE 
     9 Feminine              " bruh implies some feeling of frustration… TRUE  TRUE 
    10 Feminine              "i rarely say “bruh” it is like true ska…   TRUE  TRUE 
    # … with 46 more rows

``` r
bro_sent
```

    # A tibble: 80 × 3
       GENDER    Sent                                                          bro  
       <chr>     <chr>                                                         <lgl>
     1 Feminine  "bro is more manly to me."                                    TRUE 
     2 Masculine "bro is like dude"                                            TRUE 
     3 Feminine  " bro is more friendly"                                       TRUE 
     4 Feminine  "bro is endearing."                                           TRUE 
     5 Feminine  "bro is like brother."                                        TRUE 
     6 Feminine  "buh is more flustered bro is more straight forward"          TRUE 
     7 Feminine  "bro is more casual"                                          TRUE 
     8 Feminine  "i use bro regularly to address people and just in casual co… TRUE 
     9 Feminine  "bro- more of a family friend."                               TRUE 
    10 Masculine "bro is more formal than dude"                                TRUE 
    # … with 70 more rows

``` r
bruh_sent
```

    # A tibble: 112 × 3
       GENDER    Sent                                                         bruh 
       <chr>     <chr>                                                        <lgl>
     1 Masculine "bruh is when you’re upset"                                  TRUE 
     2 Masculine "my yellow fellow told me that “bruh” is like being able t…  TRUE 
     3 Feminine  "bruh is a term that girls tend to use more i think."        TRUE 
     4 Masculine " bruh is like “seriously dude?”"                            TRUE 
     5 Feminine  "bruh is usually used for irritation"                        TRUE 
     6 Feminine  "bruh is like disappointment like “damn.”"                   TRUE 
     7 Feminine  "used \"formally\" bruh is like a close friend."             TRUE 
     8 Feminine  " and bruh is more of an exasperated term"                   TRUE 
     9 Feminine  "i generally only use bruh when something annoying happens." TRUE 
    10 Feminine  " “bruh”"                                                    TRUE 
    # … with 102 more rows
…
bro_sent_clean %>% 
  select(word) %>% 
  unique()
```

    # A tibble: 103 × 1
       word     
       <chr>    
     1 manly    
     2 dude     
     3 friendly 
     4 endearing
     5 brother  
     6 buh      
     7 flustered
     8 straight 
     9 forward  
    10 casual   
    # … with 93 more rows
…
